fs_forest_ambush_3 = {
  material_contexts = {
    surface_material = ""
  }

  shader = "gui:DIFFUSE_MAP"

  textures = {
    diffuse_map = "textures/mods/more_loading_screens/fs_forest_ambush_3"
  }
}

fs_forest_ambush_3_masked = {
  material_contexts = {
    surface_material = ""
  }

  shader = "gui_gradient:DIFFUSE_MAP:MASKED"

  textures = {
    diffuse_map = "textures/mods/more_loading_screens/fs_forest_ambush_3"
  }
}
