fs_military_7 = {
  material_contexts = {
    surface_material = ""
  }

  shader = "gui:DIFFUSE_MAP"

  textures = {
    diffuse_map = "textures/mods/more_loading_screens/fs_military_7"
  }
}

fs_military_7_masked = {
  material_contexts = {
    surface_material = ""
  }

  shader = "gui_gradient:DIFFUSE_MAP:MASKED"

  textures = {
    diffuse_map = "textures/mods/more_loading_screens/fs_military_7"
  }
}
