fs_mines_2 = {
  material_contexts = {
    surface_material = ""
  }

  shader = "gui:DIFFUSE_MAP"

  textures = {
    diffuse_map = "textures/mods/more_loading_screens/fs_mines_2"
  }
}

fs_mines_2_masked = {
  material_contexts = {
    surface_material = ""
  }

  shader = "gui_gradient:DIFFUSE_MAP:MASKED"

  textures = {
    diffuse_map = "textures/mods/more_loading_screens/fs_mines_2"
  }
}
