fs_nurgle_1 = {
  material_contexts = {
    surface_material = ""
  }

  shader = "gui:DIFFUSE_MAP"

  textures = {
    diffuse_map = "textures/mods/more_loading_screens/fs_nurgle_1"
  }
}

fs_nurgle_1_masked = {
  material_contexts = {
    surface_material = ""
  }

  shader = "gui_gradient:DIFFUSE_MAP:MASKED"

  textures = {
    diffuse_map = "textures/mods/more_loading_screens/fs_nurgle_1"
  }
}
