fs_skaven_stronghold_6 = {
  material_contexts = {
    surface_material = ""
  }

  shader = "gui:DIFFUSE_MAP"

  textures = {
    diffuse_map = "textures/mods/more_loading_screens/fs_skaven_stronghold_6"
  }
}

fs_skaven_stronghold_6_masked = {
  material_contexts = {
    surface_material = ""
  }

  shader = "gui_gradient:DIFFUSE_MAP:MASKED"

  textures = {
    diffuse_map = "textures/mods/more_loading_screens/fs_skaven_stronghold_6"
  }
}
